Houdini,Rhino,Abiotic,Agriculture,Biotic,Urban,Water,population_per_km2,Population,rain,temperature
0,8,0.0993852,0.120902,0.224898,0.00153689,0.553279,0.62123,0,2392.45,1.11856
1,10,0.370879,0.145604,0.443338,0.000343407,0.0398352,40.847,49557065.07,1077.96,9.10536
2,9,0.341688,0.156091,0.487627,0.00253807,0.0120558,1.55609,1087938.12,1662.96,1.42874
3,11,0.247348,0.180682,0.466667,0,0.105303,51.6356,16881667.73,1953.07,5.8415
4,5,0.491153,0.197203,0.311073,0.000570776,0,6.25641,21596066.25,96.4977,5.41815
5,6,0.546703,0.240385,0.211538,0.00137363,0,1.08769,5077044.56,0,-0.291466
6,7,0.597637,0.184235,0.216884,0.00124378,0,0.613133,6164982.68,0,-6.89599
7,2,0.474952,0.244275,0.278149,0.00262405,0,1.55386,18541.38,0,-1.76493
8,1,0.544185,0.214057,0.241758,0,0,0.213333,2175876.24,0,-1.12067
9,4,0.470768,0.2,0.327461,0.00177165,0,0.745198,19103.24,0,-13.226
10,0,0.472856,0.227646,0.296305,0.00319343,0,0.0417518,0,0,0.892096
11,3,0.600169,0.195777,0.201351,0.0027027,0,0.562161,18541.38,0,-8.08461
12,12,0.558925,0.145127,0.293829,0.00211864,0,0.539342,3989106.44,0,-8.34078
13,14,0.441259,0.267387,0.290414,0.00093985,0,0.351542,3626460.4,0,-0.490997
14,13,0.356855,0.28629,0.356855,0,0,2.40097,14381016.87,128.574,-0.062428
15,15,0.541794,0.251534,0.205905,0.000766871,0,0.49313,2538522.28,0,-3.89889
16,24,0,0,0,0,1,23.8546,11218231.6,1646.14,13.8941
17,26,0,0,0,0,1,0,539560,508.199,1.73094
18,25,0.0162671,0.0235445,0.03125,0.000428082,0.92851,2.59528,30276563.44,208.105,30.884
19,27,0,0,0,0,1,7.7671,57046189.04,561.023,16.0809
20,21,0.00176056,0.0193662,0.0246479,0,0.954225,0,0,313.404,0.804208
21,20,0.0365044,0.0647124,0.0713496,0,0.827434,0,0,1993.11,-0.172987
22,22,0.226652,0.193606,0.432471,0.0075431,0.139727,0,0,2658.1,-0.221796
23,23,0.0561224,0.118197,0.154762,0.00255102,0.668367,0,0,1539.71,-0.0986993
24,18,0.520486,0.107292,0.304861,0.00138889,0.0659722,35.9802,87935007.31,896.112,9.32355
25,17,0.49378,0.242002,0.263626,0.000592417,0,0,0,425.592,0.437607
26,16,0.508249,0.269036,0.217957,0.00475888,0,29.9549,37864856.3,0,1.71682
27,19,0.382593,0.254673,0.361857,0.000876168,0,36.6146,43243601.95,358.1,1.48116
28,28,0.192235,0.13952,0.601326,0.00094697,0.0659722,0,0,1716.88,-0.268756
29,30,0.164959,0.174522,0.204235,0.0034153,0.452869,19.6837,9319999.08,472.911,3.61064
30,29,0.0108025,0.023534,0.0347222,0,0.930941,0,0,198.875,0.788395
31,31,0.115169,0.170295,0.262992,0.00526685,0.446278,0.194111,0,477.645,0.0959022
32,38,0,0,0,0,1,5.82856,27871323.64,115.131,22.4433
33,40,0,0,0,0,1,60.0291,21637738.26,631.325,32.5354
34,42,0.0289116,0.0667517,0.0888605,0.00127551,0.814201,20.0098,64138784.66,89.0873,32.9564
35,41,0,0,0,0,1,27.7292,64351739.41,94.7391,28.3355
36,43,0,0,0,0,1,29.5136,33687745.34,984.98,28.0373
37,37,0,0,0,0,1,57.8314,60559125.55,1141.62,14.6286
38,36,0.00770548,0.0132705,0.0188356,0.000428082,0.95976,1.10322,142244840.6,117.459,36.9281
39,39,0,0,0,0,1,74.1832,113759888.7,645.079,30.8426
40,34,0.300069,0.163329,0.483425,0.00207182,0.051105,61.9746,60351162.56,853.306,12.1404
41,33,0.147629,0.179957,0.535201,0.00287356,0.134339,62.7776,107335185.4,864.235,10.6475
42,32,0.390193,0.316298,0.293508,0,0,108.352,79541352.96,0,4.67367
43,35,0.275067,0.168449,0.544118,0.00334225,0.00902406,101.964,160794251.8,827.406,10.6194
44,44,0.0863095,0.113095,0.130208,0.00111607,0.669271,7.11178,20744963.56,142.866,27.5222
45,46,0.114054,0.15678,0.210452,0.00423729,0.514477,55.0349,154768528.5,436.615,18.701
46,45,0,0,0,0,1,4.72262,41913297,219.32,35.425
47,47,0.0283764,0.0470546,0.0757902,0,0.848779,1.91294,50990967,103.02,28.8612
48,56,0.372263,0.109033,0.406934,0.000456204,0.111314,57.2611,248916549.5,335.847,15.6907
49,58,0.11767,0.155093,0.364198,0.00231481,0.360725,8.12556,275823821.9,230.148,13.5222
50,57,0.508371,0.244699,0.246094,0.000837054,0,2.5538,13051363.6,48.5017,-0.862802
51,59,0.446378,0.146307,0.356534,0.00106534,0.0497159,5.56625,46365976.52,202.06,14.1159
52,53,0.011745,0.0494966,0.0583054,0,0.880453,217.189,490158834.3,807.408,15.6125
53,52,0,0,0,0,1,0.732381,1853922.4,184.516,10.4921
54,54,0.066585,0.126634,0.217729,0.00571895,0.583333,41.744,66257381.6,306.423,27.4645
55,55,0.00491071,0.0334821,0.0370536,0.000446429,0.924107,10.9382,109980172.4,105.861,22.492
56,50,0.350893,0.401339,0.244196,0.00357143,0,2.74903,14876715.8,0,-1.00812
57,49,0.492303,0.133621,0.367303,0,0.0067734,45.6799,20770684.08,499.51,10.3268
58,48,0.6375,0.208523,0.153409,0.000568182,0,11.0812,17097774.88,0,1.04295
59,51,0.68001,0.162707,0.155992,0.00129132,0,14.5814,14909316.3,0,2.64987
60,60,0.213384,0.15404,0.536932,0.00410354,0.0915404,18.7854,46819542.75,442.177,16.9886
61,62,0.3285,0.2935,0.3765,0.0015,0,9.01397,18485192.78,63.4037,2.10307
62,61,0.0901243,0.187845,0.36326,0.000690608,0.35808,95.354,255959756.6,608.991,13.6242
63,72,0.193836,0.207085,0.556164,0.00201613,0.0408986,34.6355,48469126.95,411.846,14.7234
64,74,0.50641,0.250321,0.242949,0.000320513,0,0.447744,0,0,-0.275186
65,73,0.522527,0.209364,0.267005,0.00110424,0,0.470389,0,0,-2.14736
66,75,0.587379,0.13835,0.271359,0.00291262,0,0.100971,0,0,-0.692531
67,63,0.415513,0.273208,0.310871,0.000407166,0,0.540227,7217119.8,0,-1.17439
68,69,0.338434,0.400674,0.258558,0.00233402,0,0.638465,23815080.35,30.1468,-2.41911
69,68,0.323276,0.0952586,0.569828,0,0.0116379,60.4377,195899947.9,421.751,8.03014
70,70,0.602983,0.229403,0.167377,0.000236742,0,1.11322,14434239.6,0,-4.37906
71,71,0.368436,0.277683,0.352454,0.00142694,0,2.098,81924065.64,42.8525,-2.37674
72,66,0.339476,0.2557,0.399764,0.00505994,0,0.0252451,0,0,-0.37834
73,65,0.614028,0.156389,0.228472,0.00111111,0,0.441133,7217119.8,0,-2.93044
74,64,0.657643,0.115844,0.225717,0.000796178,0,0.467016,0,0,0.428282
75,67,0.490564,0.175528,0.332792,0.00111607,0,0.0572169,3112684.1,0,-0.386833
76,76,0.588155,0.102347,0.307724,0.00177402,0,0.926712,10103967.72,0,-8.2196
77,78,0.417275,0.23827,0.342721,0.00173383,0,0,0,0,0
78,77,0.620548,0.168803,0.209224,0.0014245,0,0.865681,10103967.72,0,-6.36134
79,79,0.605946,0.140494,0.249477,0.00408291,0,0.255652,4330271.88,0,-2.824
80,120,0,0,0,0,1,0,13049,3500.68,-0.0396687
81,122,0,0,0,0,1,0,0,1564.66,0.109712
82,121,0,0.000440141,0.00132042,0,0.998239,0,0,596.921,-0.0439965
83,123,0,0,0,0,1,0,217919,1948.45,0.309052
84,117,0.0494281,0.0890523,0.131536,0.000816993,0.729167,0,0,1644.76,0.407451
85,116,0.216309,0.171875,0.414063,0.00390625,0.193848,77.6892,101651322,1241.5,6.63435
86,118,0.316964,0.13074,0.540816,0.000637755,0.0108418,0.543112,0,908.267,0.362791
87,119,0.108434,0.198795,0.487952,0.000753012,0.204066,82.5866,76196706.6,1836.82,2.93676
88,114,0.0877976,0.205729,0.406994,0.00186012,0.297619,0,0,1001.23,0.355804
89,112,0.522546,0.175514,0.300799,0.000856164,0.000285388,0.0189954,0,270.999,0.273242
90,115,0.411624,0.276274,0.309713,0.00199045,0.000398089,0.0131646,0,458.629,-0.0355362
91,124,0.330456,0.0894337,0.575967,0,0.00414365,0,0,708.35,0.0636689
92,126,0.424215,0.135568,0.411232,0.00181159,0.0271739,0.015,0,1194.22,0.7302
93,125,0.0786765,0.0830882,0.173162,0.00220588,0.662868,0,0,832.035,0.696168
94,136,0.0286145,0.0549699,0.0756777,0.00112952,0.839608,0,0,1462.78,0.481567
95,138,0.0900931,0.158577,0.31516,0.00299202,0.433178,0,5222309.12,1567.58,1.14191
96,113,0,0,0,0,1,0,0,1206.75,0.404273
97,137,0,0,0,0,1,0,74752518.7,1810.83,0.378806
98,139,0,0,0,0,1,47.8088,57445400.32,2800.27,9.02199
99,133,0,0,0,0,1,17.0309,16110771,1635.59,1.94912
100,132,0,0,0,0,1,9.09318,0,2520.4,0.828691
101,134,0,0,0,0,1,0,607470217.7,1131.35,0.438929
102,135,0,0.00044964,0,0,0.99955,182.607,139205791.4,1017.39,7.59317
103,130,0,0,0,0,1,48.7656,41027075.65,1741.77,2.76175
104,129,0,0,0,0,1,61.1895,264644924,1859.51,8.10604
105,128,0.0240709,0.0396959,0.0527872,0.00380068,0.879645,125.971,0,1630.31,13.6659
106,140,0.0831568,0.119174,0.217161,0.00105932,0.579449,329.695,302678606.9,1102.55,13.2917
107,131,0.0151786,0.0205357,0.0482143,0.000892857,0.915179,201.61,235508389.3,1623.03,17.4458
108,142,0.000403226,0,0.000403226,0,0.999194,151.619,103573150.6,2522.49,8.93538
109,141,0,0,0,0,1,47.4949,5222309.12,1968.23,7.56306
110,143,0,0,0,0,1,0,34518794.4,2657.8,0.171463
111,150,0,0,0,0,1,9.00259,39474488.95,2328.35,2.53915
112,152,0,0,0,0,1,0,0,1204.38,0.177837
113,154,0,0,0,0,1,1.31156,39915683.15,229.751,15.8152
114,153,0,0,0,0,1,4.64572,13050473.59,949.698,5.43771
115,155,0,0,0,0,1,10.4594,38169801.82,1373.13,6.17141
116,149,0,0,0,0,1,1.70827,8892010.2,125.582,3.69843
117,148,0,0,0,0,1,0,199910,561.474,0.86024
118,151,0,0,0,0,1,15.7266,16261481.06,1569.42,22.209
119,146,0,0,0,0,1,1.58488,11789412.88,659.088,3.7441
120,145,0,0,0,0,1,7.91993,129002896.5,1308.98,9.39527
121,144,0,0,0,0,1,56.8299,4581758.72,1226.41,27.8716
122,147,0,0,0,0,1,2.34574,40969640.41,583.047,10.4472
123,156,0,0,0,0,1,8.96795,100454028.6,641.592,15.0397
124,158,0,0,0,0,1,25.6761,30896213.27,1564.24,24.0088
125,157,0,0,0,0,1,17.8812,14911813.3,1046.93,20.4481
126,159,0,0,0,0,1,4.215,70730397.99,366.385,28.9252
127,88,0,0,0,0,1,19.8488,21412559.95,952.273,30.2972
128,90,0,0,0,0,1,12.0275,35134969.85,1891.66,16.6235
129,89,0,0,0,0,1,4.52248,10382643.25,1517.72,28.2863
130,91,0,0,0,0,1,92.0549,33501787.55,1000.14,11.1705
131,85,0,0,0,0,1,40.7992,31500827.65,2203.11,24.6639
132,84,0,0,0,0,1,3.12391,2381770,2249.14,23.4427
133,86,0,0,0,0,1,5.46648,0,612.59,1.73668
134,87,0,0,0,0,1,0,1644992.5,805.715,1.32653
135,82,0,0,0,0,1,8.79961,0,921.85,3.9085
136,81,0,0,0,0,1,0,0,255.427,0.683684
137,80,0,0,0,0,1,0,0,2403.92,1.41271
138,83,0,0,0,0,1,0,0,1184.05,1.15778
139,92,0,0,0,0,1,0,0,1167.06,1.07141
140,94,0,0,0,0,1,0,10382643.25,1858.61,1.04578
141,93,0,0,0,0,1,12.2471,41530573,723.333,15.5563
142,95,0,0,0,0,1,2.89842,20765286.5,2149.94,23.3892
143,104,0,0,0,0,1,8.09553,0,1338.34,18.5811
144,106,0,0,0,0,1,0,0,507.38,-0.24348
145,105,0,0,0,0,1,0,12925100.52,2407.5,-0.293533
146,107,0,0,0,0,1,0,0,3107.39,0.131175
147,101,0,0,0,0,1,0,0,3442.91,0.117758
148,100,0.0725806,0.144758,0.178629,0.00645161,0.597581,0.0847097,0,191.742,-0.390462
149,102,0.308847,0.150974,0.530032,0.000811688,0.00933442,0.047013,48469126.95,1061.99,-0.132968
150,103,0.368886,0.102921,0.477582,0.0078125,0.0427989,4.03983,16156375.65,428.54,16.492
151,98,0.243182,0.202652,0.448485,0.00378788,0.101894,25.9487,48632137.95,600.458,4.88982
152,97,0,0,0,0,1,18.1071,51700402.08,1660,9.68365
153,96,0.150979,0.171687,0.310617,0.00451807,0.362199,35.6708,10158176.2,1535.68,19.0089
154,99,0.0208333,0.0298423,0.0506757,0.00225225,0.896396,6.22277,11052943.06,1478.88,4.68968
155,108,0.0397321,0.0361607,0.059375,0,0.864732,6.77092,61223169.25,1572.57,6.12969
156,110,0.177025,0.150838,0.308659,0.00139665,0.362081,11.8394,38262126.9,701.341,24.6639
157,109,0.000403226,0,0,0,0.999597,19.6765,0,1490.39,9.50224
158,111,0.0100932,0.0194099,0.0353261,0,0.935171,0,44639148.05,301.136,-0.761721
159,260,0.025,0.0363971,0.05,0.000367647,0.888235,7.43798,0,624.757,15.176
160,262,0,0,0,0,1,0,0,314.991,-0.331535
161,261,0,0,0,0,1,0,0,853.218,-0.251008
162,263,0,0,0,0,1,0,0,2822.95,-0.280312
163,257,0,0,0,0,1,0,0,1755.44,-0.264246
164,256,0,0,0,0,1,0,0,2142.34,0.137513
165,258,0,0,0,0,1,0,0,3442.82,-0.234904
166,259,0,0,0,0,1,0,0,937.699,-0.335288
167,266,0,0,0,0,1,0,0,3027.4,-0.28238
168,265,0.0476974,0.0501645,0.106086,0.00246711,0.793586,0,0,780.823,-0.590346
169,264,0.0641234,0.14651,0.130682,0.00405844,0.654627,0,0,936.004,-0.0635877
170,267,0.348848,0.163121,0.452571,0.000443262,0.0350177,0,0,1448.07,-0.156791
171,270,0.122517,0.161424,0.308361,0.00124172,0.406457,0,0,1396.15,-0.563987
172,269,0,0,0,0,1,0,0,461.801,-0.261919
173,268,0,0,0,0,1,0,114395,1053.96,-0.478081
174,271,0,0,0,0,1,0,0,3257.08,-0.197123
175,276,0,0,0,0,1,0.0129375,0,1207.4,-0.11016
176,278,0,0,0,0,1,0,3767774.6,3754.16,-0.32645
177,277,0,0,0,0,1,1.56038,0,2970.66,4.60728
178,279,0,0,0,0,1,0,0,2772.03,0.52787
179,273,0,0,0,0,1,0.0402362,2421080.9,3651.89,0.242882
180,280,0,0,0,0,1,0.734633,53334109.45,1222.6,20.2349
181,272,0,0,0,0,1,0.308148,1936864.72,860.551,12.8313
182,274,0,0,0,0,1,25.3821,45404771.4,2299.45,6.14985
183,275,0,0,0,0,1,9.50993,15476853.7,1312.17,9.05285
184,282,0.00308099,0.00396127,0.0110035,0,0.981954,0,0,1644.78,0.383252
185,281,0,0,0,0,1,35.3403,61992133.2,2564.07,4.29603
186,283,0.102604,0.0854167,0.146875,0.0015625,0.663542,143.528,13786650,1776.99,6.73286
187,286,0.00181159,0.00407609,0.0199275,0.000905797,0.973279,5.93364,54383861.6,1776.29,1.52891
188,285,0,0,0,0,1,16.3798,21503,1562.01,3.46262
189,284,0,0,0,0,1,0,31771039.3,2462.78,0.445549
190,287,0,0,0,0,1,5.86205,0,2367.4,7.98362
191,292,0,0,0,0,1,0.185346,0,1466.77,0.764438
192,294,0,0,0,0,1,0,0,679.287,0.266194
193,293,0,0,0,0,1,0,0,722.392,0.579638
194,295,0,0,0,0,1,0,0,855.087,0.340791
195,289,0,0,0,0,1,0,0,390.803,0.473786
196,288,0,0,0,0,1,0,0,1060.97,0.114185
197,290,0,0,0,0,1,0,0,910.821,0.0454383
198,291,0,0,0,0,1,0.883871,0,1041.31,0.662951
199,298,0,0,0,0,1,0,0,1395.48,-0.041762
200,297,0,0,0,0,1,0,94677,2574.85,0.260261
201,296,0,0,0,0,1,2.97899,0,1882.04,2.04613
202,299,0,0,0,0,1,0,0,1308.25,0.184126
203,302,0,0,0,0,1,0,1263473,2421.42,0.53341
204,301,0,0,0,0,1,0.268086,0,1245.91,0.810153
205,300,0,0,0,0,1,0,0,1298.19,0.405516
206,303,0,0,0,0,1,0,0,775.972,0.468324
207,308,0,0,0,0,1,0,0,900.176,0.607746
208,311,0,0,0,0,1,0,0,409.848,0.477006
209,309,0,0,0,0,1,0,0,287.119,0.824155
210,314,0,0,0,0,1,0,0,547.415,0.112902
211,319,0,0,0,0,1,0,0,775.027,0.611332
212,313,0,0,0,0,1,0,0,895.358,0.399694
213,317,0,0,0,0,1,0.214922,0,1293.02,0.999316
214,318,0,0,0,0,1,0,0,1636.94,0.338382
215,307,0,0,0,0,1,0,0,1928.04,0.363204
216,304,0,0,0,0,1,0,0,41.4311,0.170629
217,306,0,0,0,0,1,0,0,205.272,0.637644
218,315,0,0,0,0,1,0,0,150.936,0.788201
219,305,0,0,0,0,1,0,0,41.2255,0.506346
220,310,0,0,0,0,1,0,0,1120.13,0.316108
221,312,0,0,0,0,1,0,0,335.763,0.0141029
222,244,0,0,0,0,1,0,20225435.1,1153.39,0.524553
223,246,0,0,0,0,1,0,0,1101.14,0.055877
224,247,0,0,0,0,1,11.6674,11197551,739.393,18.8885
225,241,0,0,0,0,1,0,0,112.892,-0.872922
226,240,0,0,0,0,1,7.47594,0,1173.9,19.6655
227,242,0,0,0,0,1,0.632199,0,95.2377,6.09714
228,243,0,0,0,0,1,0,0,38.9575,-0.931978
229,250,0,0,0,0,1,0,49936361.95,147.074,-0.656156
230,249,0,0,0,0,1,0,30108612.55,898.974,-0.011109
231,248,0,0,0,0,1,0,24907432,113.977,-0.684315
232,251,0,0,0,0,1,13.765,37641775.8,3262.75,17.7004
233,254,0,0,0,0,1,9.67567,3277013.6,2599.75,5.58815
234,253,0,0,0,0,1,45.0961,36990132.35,707.683,4.6992
235,252,0,0,0,0,1,26.6963,0,2055.11,7.99543
236,255,0,0,0,0,1,0.0560959,11320103.05,1340.65,0.638153
237,184,0,0,0,0,1,14.7564,0,1908.63,17.6127
238,186,0,0,0,0,1,0,104937,24.3335,-1.13585
239,181,0,0,0,0,1,0,556502,92.2528,-0.741891
240,185,0,0,0,0,1,0,0,4191.43,0.192451
241,187,0,0,0,0,1,0,700104,2029.91,0.514491
242,180,0,0,0,0,1,0.592466,0,860.763,1.09207
243,182,0,0,0,0,1,0.284462,0,2265.4,1.18399
244,183,0,0,0,0,1,1.41228,0,1255.37,0.987294
245,178,0,0,0,0,1,0,64163,295.175,-0.260625
246,177,0,0,0,0,1,0,0,2334.25,0.176582
247,176,0,0,0,0,1,0,0,1253.38,0.534989
248,179,0,0,0,0,1,0,0,568.922,0.416336
249,188,0,0,0,0,1,0,0,506.047,1.1422
250,190,0,0,0,0,1,0,0,0,0.088011
251,191,0,0,0,0,1,0,0,432.807,0.535762
252,189,0,0,0,0,1,0,0,1289,1.16126
253,168,0,0,0,0,1,0,0,942.889,0.721205
254,170,0,0,0,0,1,0,0,2019.23,0.470233
255,169,0,0,0,0,1,0,0,1527.19,0.832938
256,171,0,0,0,0,1,0,0,382.824,-0.394127
257,165,0,0,0,0,1,0,0,901.009,-0.253859
258,164,0,0,0,0,1,0,16736179.8,1852.74,0.387808
259,166,0,0,0,0,1,0,895487.7,1280.68,-0.0379255
260,167,0,0,0,0,1,0,1790975.4,853.355,-0.379722
261,162,0,0,0,0,1,5.36167,0,786.946,12.3909
262,161,0,0,0,0,1,0.00928571,0,115.945,0.0717621
263,160,0,0,0,0,1,0.0705085,0,912.789,0.199985
264,163,0,0,0,0,1,0,0,376.111,0.696749
265,172,0,0,0,0,1,0,0,0,0.0503304
266,174,0,0,0,0,1,0,0,0,-0.0565114
267,173,0,0,0,0,1,0,0,0,0.0991152
268,175,0,0,0,0,1,0,0,67.9933,0.21407
269,232,0,0,0,0,1,0,438474.3,931.606,1.02189
270,234,0,0,0,0,1,0,0,1379.36,0.212376
271,233,0,0,0,0,1,0,895487.7,876.997,0.511655
272,235,0,0,0,0,1,0.0641096,438474.3,503.771,1.19897
273,229,0,0,0,0,1,0.00863071,0,17.4344,0.136064
274,228,0,0,0,0,1,0.109697,0,0,-0.199512
275,230,0,0,0,0,1,0.0975566,0,32.9905,0.100457
276,231,0,0,0,0,1,0.0110247,0,0,-0.247548
277,226,0,0,0,0,1,0,0,0,0.0267308
278,225,0,0,0,0,1,0.955187,0,0,-9.41654
279,224,0,0,0,0,1,0.0776624,0,0,-1.52396
280,227,0,0,0,0,1,0.367466,0,0,-8.03643
281,236,0,0,0,0,1,0.960318,0,0,-16.4105
282,238,0,0,0,0,1,0,0,0,0
283,237,0,0,0,0,1,0.608493,0,0,-11.2731
284,216,0,0,0,0,1,1.01026,0,0,-21.8466
285,239,0,0,0,0,1,0.416906,0,0,-9.3657
286,218,0,0,0,0,1,0.0147727,0,0,-0.208427
287,217,0,0,0,0,1,0.2132,0,0,-4.60213
288,316,0,0,0,0,1,0,0,0,0.0181831
289,219,0,0,0,0,1,0.00474886,0,156.21,0.325497
290,213,0,0,0,0,1,0.770945,0,0,-15.7597
291,212,0,0,0,0,1,0,726324.27,0,0.0190436
292,214,0,0,0,0,1,0,0,829.263,0.545907
293,215,0,0,0,0,1,0.115328,0,702.237,1.39546
294,210,0,0,0,0,1,0,0,603.724,0.384074
295,209,0,0,0,0,1,0,0,582.796,0.47003
296,208,0,0,0,0,1,1.02198,0,0,-11.9921
297,211,0,0,0,0,1,0.0419048,0,0,-0.562132
298,220,0,0,0,0,1,0.0379562,0,0,-1.26382
299,222,0,0,0,0,1,0.681184,0,0,-14.7987
300,221,0,0,0,0,1,0,0,0,0.417622
301,223,0,0,0,0,1,0.943258,0,0,-13.5895
302,200,0,0,0,0,1,0,4842161.8,146.254,0.661415
303,202,0,0,0,0,1,0.0948329,4842161.8,0,-1.90644
304,201,0,0,0,0,1,0.957369,0,390.148,28.7275
305,203,0,0,0,0,1,1.02535,3631621.35,513.247,35.8419
306,197,0,0,0,0,1,0.211322,722764.7,614.172,1.35558
307,196,0,0,0,0,1,0.697987,0,330.203,21.8375
308,198,0,0,0,0,1,0.12374,0,1644.68,1.22306
309,199,0,0,0,0,1,0,270402,4469.06,0.315929
310,194,0,0,0,0,1,0,0,966.18,0.405666
311,193,0,0,0,0,1,0.273286,4364676,2192.61,2.35107
312,192,0,0,0,0,1,0,0,233.792,0.321078
313,195,0,0,0,0,1,2.78306,93864,976.038,2.26622
314,204,0,0,0,0,1,0,234660,0,0.271048
315,206,0,0,0,0,1,0,1936864.72,362.197,0.151984
316,205,0,0,0,0,1,0.0277717,2905297.08,1312.92,0.57538
317,207,0,0,0,0,1,0.659447,2905297.08,799.391,3.36735
318,127,0,0,0,0,1,1.07417,0,748.458,24.8109
319,245,0,0,0,0,1,0.969669,22732373.7,1428.56,9.10348